{
  "project_info": {
    "project_number": "1028850479252",
    "firebase_url": "https://xdra-313d0.firebaseio.com",
    "project_id": "xdra-313d0",
    "storage_bucket": "xdra-313d0.appspot.com"
  },
  "client": [
    {
      "client_info": {
        "mobilesdk_app_id": "1:1028850479252:android:12ac905d848e7866",
        "android_client_info": {
          "package_name": "com.xdramodel"
        }
      },
      "oauth_client": [
        {
          "client_id": "1028850479252-d1dfdhu24fk28fn7b4de87sjrqfk9ebl.apps.googleusercontent.com",
          "client_type": 1,
          "android_info": {
            "package_name": "com.xdramodel",
            "certificate_hash": "7dd0ecbc8c685a386861b901799b078f051745e4"
          }
        },
        {
          "client_id": "1028850479252-6h3lnm8eljh8dccq1fk09vna4ge3ueuj.apps.googleusercontent.com",
          "client_type": 3
        }
      ],
      "api_key": [
        {
          "current_key": "AIzaSyBzPErCbt4TQOCVipAw6YYJve8wBXWm5k8"
        }
      ],
      "services": {
        "appinvite_service": {
          "other_platform_oauth_client": [
            {
              "client_id": "1028850479252-6h3lnm8eljh8dccq1fk09vna4ge3ueuj.apps.googleusercontent.com",
              "client_type": 3
            },
            {
              "client_id": "1028850479252-8mcib5ho086nu1is48013assfrpp8hje.apps.googleusercontent.com",
              "client_type": 2,
              "ios_info": {
                "bundle_id": "com.d8bid.com"
              }
            }
          ]
        }
      }
    }
  ],
  "configuration_version": "1"
}